%YAML 1.1
%TAG !u! tag:unity3d.com,2011:
--- !u!74 &7400000
AnimationClip:
  m_ObjectHideFlags: 0
  m_CorrespondingSourceObject: {fileID: 0}
  m_PrefabInstance: {fileID: 0}
  m_PrefabAsset: {fileID: 0}
  m_Name: Attack 1
  serializedVersion: 6
  m_Legacy: 0
  m_Compressed: 0
  m_UseHighQualityCurve: 1
  m_RotationCurves: []
  m_CompressedRotationCurves: []
  m_EulerCurves: []
  m_PositionCurves: []
  m_ScaleCurves: []
  m_FloatCurves: []
  m_PPtrCurves:
  - curve:
    - time: 0
      value: {fileID: 21300000, guid: 091d7db19e39a0946b341ce06e6fa463, type: 3}
    - time: 0.05
      value: {fileID: 21300000, guid: 9a9f3b13587310241842540f59b8a8da, type: 3}
    - time: 0.1
      value: {fileID: 21300000, guid: 54aa442dfd6c65b48b21b02216390140, type: 3}
    - time: 0.15
      value: {fileID: 21300000, guid: 8e64c94377006164aaf60cd2bcb05baa, type: 3}
    - time: 0.2
      value: {fileID: 21300000, guid: 69fdc4a362936e5438cb7968b83ac6aa, type: 3}
    - time: 0.25
      value: {fileID: 21300000, guid: 6bb44aba88c1a4a41a2e25ad175afef1, type: 3}
    - time: 0.3
      value: {fileID: 21300000, guid: 46f81ddf288d6d44b87ddb720ffe2e04, type: 3}
    - time: 0.35
      value: {fileID: 21300000, guid: 8b5ff8ed48467e64186aea6b97eadd2b, type: 3}
    - time: 0.4
      value: {fileID: 21300000, guid: 20e8680519326b54dba84f749fd74d03, type: 3}
    - time: 0.45
      value: {fileID: 21300000, guid: 567a38a94a617574c9f0ec9d5c8762a6, type: 3}
    - time: 0.5
      value: {fileID: 21300000, guid: c7378e7d33e98cd4e928963acde13e51, type: 3}
    - time: 0.55
      value: {fileID: 21300000, guid: 6078bb469f6dd9141a9145f160f00ad9, type: 3}
    - time: 0.6
      value: {fileID: 21300000, guid: 5a49eaa101706db4388b9c919e86f968, type: 3}
    - time: 0.65
      value: {fileID: 21300000, guid: da593989c043dab4e9f1628d52e92e40, type: 3}
    - time: 0.7
      value: {fileID: 21300000, guid: 83305541b8bf5b74a8f44b6315c0f312, type: 3}
    - time: 0.75
      value: {fileID: 21300000, guid: b32fbb9ede05263459cca7bc39b99c27, type: 3}
    attribute: m_Sprite
    path: 
    classID: 212
    script: {fileID: 0}
  m_SampleRate: 100
  m_WrapMode: 0
  m_Bounds:
    m_Center: {x: 0, y: 0, z: 0}
    m_Extent: {x: 0, y: 0, z: 0}
  m_ClipBindingConstant:
    genericBindings:
    - serializedVersion: 2
      path: 0
      attribute: 0
      script: {fileID: 0}
      typeID: 212
      customType: 23
      isPPtrCurve: 1
    pptrCurveMapping:
    - {fileID: 21300000, guid: 091d7db19e39a0946b341ce06e6fa463, type: 3}
    - {fileID: 21300000, guid: 9a9f3b13587310241842540f59b8a8da, type: 3}
    - {fileID: 21300000, guid: 54aa442dfd6c65b48b21b02216390140, type: 3}
    - {fileID: 21300000, guid: 8e64c94377006164aaf60cd2bcb05baa, type: 3}
    - {fileID: 21300000, guid: 69fdc4a362936e5438cb7968b83ac6aa, type: 3}
    - {fileID: 21300000, guid: 6bb44aba88c1a4a41a2e25ad175afef1, type: 3}
    - {fileID: 21300000, guid: 46f81ddf288d6d44b87ddb720ffe2e04, type: 3}
    - {fileID: 21300000, guid: 8b5ff8ed48467e64186aea6b97eadd2b, type: 3}
    - {fileID: 21300000, guid: 20e8680519326b54dba84f749fd74d03, type: 3}
    - {fileID: 21300000, guid: 567a38a94a617574c9f0ec9d5c8762a6, type: 3}
    - {fileID: 21300000, guid: c7378e7d33e98cd4e928963acde13e51, type: 3}
    - {fileID: 21300000, guid: 6078bb469f6dd9141a9145f160f00ad9, type: 3}
    - {fileID: 21300000, guid: 5a49eaa101706db4388b9c919e86f968, type: 3}
    - {fileID: 21300000, guid: da593989c043dab4e9f1628d52e92e40, type: 3}
    - {fileID: 21300000, guid: 83305541b8bf5b74a8f44b6315c0f312, type: 3}
    - {fileID: 21300000, guid: b32fbb9ede05263459cca7bc39b99c27, type: 3}
  m_AnimationClipSettings:
    serializedVersion: 2
    m_AdditiveReferencePoseClip: {fileID: 0}
    m_AdditiveReferencePoseTime: 0
    m_StartTime: 0
    m_StopTime: 0.76
    m_OrientationOffsetY: 0
    m_Level: 0
    m_CycleOffset: 0
    m_HasAdditiveReferencePose: 0
    m_LoopTime: 1
    m_LoopBlend: 0
    m_LoopBlendOrientation: 0
    m_LoopBlendPositionY: 0
    m_LoopBlendPositionXZ: 0
    m_KeepOriginalOrientation: 0
    m_KeepOriginalPositionY: 1
    m_KeepOriginalPositionXZ: 0
    m_HeightFromFeet: 0
    m_Mirror: 0
  m_EditorCurves: []
  m_EulerEditorCurves: []
  m_HasGenericRootTransform: 0
  m_HasMotionFloatCurves: 0
  m_Events: []
