%YAML 1.1
%TAG !u! tag:unity3d.com,2011:
--- !u!74 &7400000
AnimationClip:
  m_ObjectHideFlags: 0
  m_CorrespondingSourceObject: {fileID: 0}
  m_PrefabInstance: {fileID: 0}
  m_PrefabAsset: {fileID: 0}
  m_Name: Damaged
  serializedVersion: 6
  m_Legacy: 0
  m_Compressed: 0
  m_UseHighQualityCurve: 1
  m_RotationCurves: []
  m_CompressedRotationCurves: []
  m_EulerCurves: []
  m_PositionCurves: []
  m_ScaleCurves: []
  m_FloatCurves: []
  m_PPtrCurves:
  - curve:
    - time: 0
      value: {fileID: 21300000, guid: 2c68bc045089fda4a8c7d02b0fe0ea27, type: 3}
    - time: 0.05
      value: {fileID: 21300000, guid: 773f2d8d5c7f3f64ca98d325c4ea4c10, type: 3}
    - time: 0.1
      value: {fileID: 21300000, guid: 7f6db5b93c2261a428be862878cf3618, type: 3}
    - time: 0.15
      value: {fileID: 21300000, guid: 15be0e929870d5040a2247ce67d974b3, type: 3}
    - time: 0.2
      value: {fileID: 21300000, guid: 7871e4c38b5c3d043b7a97c3b53f3749, type: 3}
    - time: 0.25
      value: {fileID: 21300000, guid: 92310fb791f7c5b4c8faffd93f6881b3, type: 3}
    - time: 0.3
      value: {fileID: 21300000, guid: 791a6f79df1f13648a9d5e69bb618bd7, type: 3}
    - time: 0.35
      value: {fileID: 21300000, guid: fbcbb497cbe58dc48bd1696e8aa3e2db, type: 3}
    - time: 0.4
      value: {fileID: 21300000, guid: 727607acf6935fe4fb503e255669d06f, type: 3}
    attribute: m_Sprite
    path: 
    classID: 212
    script: {fileID: 0}
  m_SampleRate: 100
  m_WrapMode: 0
  m_Bounds:
    m_Center: {x: 0, y: 0, z: 0}
    m_Extent: {x: 0, y: 0, z: 0}
  m_ClipBindingConstant:
    genericBindings:
    - serializedVersion: 2
      path: 0
      attribute: 0
      script: {fileID: 0}
      typeID: 212
      customType: 23
      isPPtrCurve: 1
    pptrCurveMapping:
    - {fileID: 21300000, guid: 2c68bc045089fda4a8c7d02b0fe0ea27, type: 3}
    - {fileID: 21300000, guid: 773f2d8d5c7f3f64ca98d325c4ea4c10, type: 3}
    - {fileID: 21300000, guid: 7f6db5b93c2261a428be862878cf3618, type: 3}
    - {fileID: 21300000, guid: 15be0e929870d5040a2247ce67d974b3, type: 3}
    - {fileID: 21300000, guid: 7871e4c38b5c3d043b7a97c3b53f3749, type: 3}
    - {fileID: 21300000, guid: 92310fb791f7c5b4c8faffd93f6881b3, type: 3}
    - {fileID: 21300000, guid: 791a6f79df1f13648a9d5e69bb618bd7, type: 3}
    - {fileID: 21300000, guid: fbcbb497cbe58dc48bd1696e8aa3e2db, type: 3}
    - {fileID: 21300000, guid: 727607acf6935fe4fb503e255669d06f, type: 3}
  m_AnimationClipSettings:
    serializedVersion: 2
    m_AdditiveReferencePoseClip: {fileID: 0}
    m_AdditiveReferencePoseTime: 0
    m_StartTime: 0
    m_StopTime: 0.41
    m_OrientationOffsetY: 0
    m_Level: 0
    m_CycleOffset: 0
    m_HasAdditiveReferencePose: 0
    m_LoopTime: 1
    m_LoopBlend: 0
    m_LoopBlendOrientation: 0
    m_LoopBlendPositionY: 0
    m_LoopBlendPositionXZ: 0
    m_KeepOriginalOrientation: 0
    m_KeepOriginalPositionY: 1
    m_KeepOriginalPositionXZ: 0
    m_HeightFromFeet: 0
    m_Mirror: 0
  m_EditorCurves: []
  m_EulerEditorCurves: []
  m_HasGenericRootTransform: 0
  m_HasMotionFloatCurves: 0
  m_Events: []
